<svg xmlns="http://www.w3.org/2000/svg" aria-hidden="true" class="svg-inline--fa fa-text fa-w-14" viewBox="0 0 448 512">
    <g class="fa-group">
        <path fill="#8e99ad" d="M304 416a16 16 0 0 1 16 16v32a16 16 0 0 1-16 16H144a16 16 0 0 1-16-16v-32a16 16 0 0 1 16-16z" class="fa-secondary" opacity=".4"/>
        <path fill="#8e99ad" d="M448 48v96a16 16 0 0 1-16 16h-32a16 16 0 0 1-16-16v-32H264v304h-80V112H64v32a16 16 0 0 1-16 16H16a16 16 0 0 1-16-16V48a16 16 0 0 1 16-16h416a16 16 0 0 1 16 16z" class="fa-primary"/>
    </g>
</svg>
